<svg width="31" height="31" viewBox="0 0 31 31" fill="none" xmlns="http://www.w3.org/2000/svg">
<path d="M15.5 31C6.93959 31 0 24.0604 0 15.5C0 6.93959 6.93959 0 15.5 0C24.0604 0 31 6.93959 31 15.5C31 24.0604 24.0604 31 15.5 31Z" fill="#014991"/>
<path d="M10.3051 16.6938L16.3251 22.7138C16.5089 22.8977 16.7583 23.0011 17.0183 23.0012C17.2783 23.0013 17.5277 22.8981 17.7116 22.7143C17.8956 22.5305 17.9989 22.2811 17.999 22.0211C17.9991 21.7611 17.8959 21.5117 17.7121 21.3278L12.3851 15.9998L17.7121 10.6738C17.8856 10.4879 17.9801 10.2419 17.9758 9.98769C17.9714 9.73347 17.8686 9.49087 17.6889 9.31102C17.5091 9.13117 17.2666 9.02812 17.0124 9.02359C16.7582 9.01907 16.5121 9.11342 16.3261 9.28676L10.3061 15.3068C10.2151 15.3978 10.1429 15.5058 10.0937 15.6247C10.0444 15.7436 10.0191 15.8711 10.0191 15.9998C10.0191 16.1285 10.0444 16.2559 10.0937 16.3748C10.1429 16.4937 10.2151 16.6018 10.3061 16.6928L10.3051 16.6938Z" fill="white"/>
</svg>
