<svg width="205" height="555" viewBox="0 0 205 555" fill="none" xmlns="http://www.w3.org/2000/svg">
<g clip-path="url(#clip0)">
<path opacity="0.342" d="M-90.819 0L-268.568 177.732L-180.977 265.307L-90.8199 175.154L-0.670959 265.307L86.936 177.732L-90.819 0Z" fill="#0090B7"/>
<path opacity="0.342" d="M-60.322 376.834L117.417 554.566L205 466.985L114.851 376.832L205 286.662L117.418 199.075L-60.322 376.834Z" fill="#003A7F"/>
</g>
<defs>
<clipPath id="clip0">
<rect width="205" height="555" fill="white"/>
</clipPath>
</defs>
</svg>
