<svg width="1022" height="156" viewBox="0 0 1022 156" fill="none" xmlns="http://www.w3.org/2000/svg">
<g clip-path="url(#clip0)">
<path d="M68.2783 75.6167H29.1846V116H8.82324V17.1797H73.165V33.6724H29.1846V59.1919H68.2783V75.6167ZM144.43 73.1733H105.336V99.6431H151.217V116H84.9746V17.1797H151.081V33.6724H105.336V57.2236H144.43V73.1733ZM218.952 95.6387H183.252L176.465 116H154.814L191.6 17.1797H210.468L247.458 116H225.807L218.952 95.6387ZM188.75 79.146H213.455L201.034 42.1562L188.75 79.146ZM307.931 90.0732C307.931 86.2272 306.574 83.2861 303.859 81.25C301.144 79.1686 296.257 76.9967 289.199 74.7344C282.14 72.4268 276.552 70.1644 272.435 67.9473C261.213 61.8841 255.603 53.717 255.603 43.4458C255.603 38.1066 257.096 33.3556 260.082 29.1929C263.114 24.9849 267.435 21.7044 273.045 19.3516C278.701 16.9987 285.036 15.8223 292.049 15.8223C299.108 15.8223 305.397 17.1118 310.917 19.6909C316.438 22.2248 320.714 25.8219 323.745 30.4824C326.822 35.1429 328.36 40.4368 328.36 46.3643H307.999C307.999 41.8395 306.574 38.3328 303.723 35.8442C300.873 33.3104 296.868 32.0435 291.71 32.0435C286.733 32.0435 282.864 33.1068 280.104 35.2334C277.344 37.3148 275.964 40.0749 275.964 43.5137C275.964 46.7262 277.57 49.4185 280.783 51.5903C284.041 53.7622 288.814 55.7983 295.104 57.6987C306.687 61.1828 315.125 65.5039 320.419 70.6621C325.713 75.8203 328.36 82.2454 328.36 89.9375C328.36 98.4893 325.125 105.208 318.655 110.095C312.184 114.937 303.474 117.357 292.524 117.357C284.923 117.357 278 115.977 271.756 113.217C265.512 110.412 260.738 106.589 257.435 101.747C254.177 96.9056 252.548 91.2949 252.548 84.915H272.978C272.978 95.8197 279.493 101.272 292.524 101.272C297.366 101.272 301.144 100.299 303.859 98.3535C306.574 96.3626 307.931 93.6025 307.931 90.0732ZM403.426 17.1797L428.81 88.8516L454.058 17.1797H480.799V116H460.37V88.9873L462.406 42.3599L435.732 116H421.751L395.146 42.4277L397.182 88.9873V116H376.82V17.1797H403.426ZM531.091 117.357C520.322 117.357 511.544 114.054 504.757 107.448C498.015 100.842 494.645 92.0415 494.645 81.0464V79.146C494.645 71.7707 496.07 65.1872 498.92 59.3955C501.771 53.5586 505.798 49.0791 511.001 45.957C516.25 42.7897 522.223 41.2061 528.919 41.2061C538.964 41.2061 546.86 44.3734 552.606 50.708C558.398 57.0426 561.294 66.0243 561.294 77.6528V85.6616H514.531C515.164 90.4578 517.065 94.3039 520.232 97.1997C523.444 100.096 527.494 101.543 532.381 101.543C539.937 101.543 545.842 98.806 550.095 93.3311L559.733 104.123C556.792 108.285 552.81 111.543 547.788 113.896C542.765 116.204 537.2 117.357 531.091 117.357ZM528.852 57.0879C524.96 57.0879 521.793 58.4001 519.35 61.0244C516.951 63.6488 515.413 67.4043 514.734 72.291H542.019V70.73C541.928 66.3862 540.752 63.0379 538.489 60.6851C536.227 58.2869 533.014 57.0879 528.852 57.0879ZM590.886 42.5635L591.497 50.7759C596.7 44.396 603.736 41.2061 612.604 41.2061C622.061 41.2061 628.554 44.939 632.083 52.4048C637.242 44.939 644.594 41.2061 654.142 41.2061C662.105 41.2061 668.033 43.5363 671.924 48.1968C675.815 52.812 677.761 59.7801 677.761 69.1011V116H658.078V69.1689C658.078 65.0062 657.264 61.9746 655.635 60.0742C654.006 58.1286 651.133 57.1558 647.015 57.1558C641.133 57.1558 637.061 59.9611 634.798 65.5718L634.866 116H615.251V69.2368C615.251 64.9836 614.414 61.9067 612.74 60.0063C611.066 58.106 608.215 57.1558 604.188 57.1558C598.623 57.1558 594.596 59.4634 592.107 64.0786V116H572.493V42.5635H590.886ZM759.07 79.9604C759.07 91.7248 756.559 100.91 751.537 107.516C746.514 114.077 739.501 117.357 730.497 117.357C722.533 117.357 716.176 114.303 711.425 108.195L710.542 116H692.896V11.75H712.511V49.147C717.035 43.853 722.986 41.2061 730.361 41.2061C739.32 41.2061 746.333 44.5091 751.401 51.1152C756.514 57.6761 759.07 66.9292 759.07 78.8745V79.9604ZM739.456 78.5352C739.456 71.1146 738.279 65.7075 735.926 62.314C733.573 58.8752 730.067 57.1558 725.406 57.1558C719.162 57.1558 714.864 59.7122 712.511 64.8252V93.8062C714.909 98.9644 719.253 101.543 725.542 101.543C731.877 101.543 736.039 98.4214 738.03 92.1772C738.98 89.1909 739.456 84.6436 739.456 78.5352ZM805.019 117.357C794.25 117.357 785.472 114.054 778.685 107.448C771.943 100.842 768.572 92.0415 768.572 81.0464V79.146C768.572 71.7707 769.998 65.1872 772.848 59.3955C775.699 53.5586 779.726 49.0791 784.929 45.957C790.178 42.7897 796.151 41.2061 802.847 41.2061C812.892 41.2061 820.788 44.3734 826.534 50.708C832.326 57.0426 835.222 66.0243 835.222 77.6528V85.6616H788.458C789.092 90.4578 790.992 94.3039 794.16 97.1997C797.372 100.096 801.422 101.543 806.309 101.543C813.865 101.543 819.77 98.806 824.023 93.3311L833.661 104.123C830.72 108.285 826.738 111.543 821.715 113.896C816.693 116.204 811.127 117.357 805.019 117.357ZM802.779 57.0879C798.888 57.0879 795.721 58.4001 793.277 61.0244C790.879 63.6488 789.341 67.4043 788.662 72.291H815.946V70.73C815.856 66.3862 814.679 63.0379 812.417 60.6851C810.155 58.2869 806.942 57.0879 802.779 57.0879ZM887.686 60.9565C885.016 60.5946 882.664 60.4136 880.627 60.4136C873.207 60.4136 868.343 62.9248 866.035 67.9473V116H846.42V42.5635H864.949L865.492 51.3188C869.429 44.577 874.881 41.2061 881.849 41.2061C884.021 41.2061 886.057 41.5002 887.958 42.0884L887.686 60.9565ZM936.96 95.7065C936.96 93.3084 935.761 91.4307 933.363 90.0732C931.01 88.6706 927.21 87.4263 921.961 86.3403C904.495 82.6753 895.763 75.2547 895.763 64.0786C895.763 57.563 898.455 52.1333 903.839 47.7896C909.269 43.4006 916.35 41.2061 925.083 41.2061C934.404 41.2061 941.847 43.4006 947.413 47.7896C953.023 52.1785 955.829 57.8797 955.829 64.8931H936.214C936.214 62.0877 935.309 59.7801 933.499 57.9702C931.689 56.1151 928.861 55.1875 925.015 55.1875C921.712 55.1875 919.156 55.9341 917.346 57.4272C915.536 58.9204 914.631 60.8208 914.631 63.1284C914.631 65.3003 915.649 67.0649 917.685 68.4224C919.766 69.7345 923.25 70.8883 928.137 71.8838C933.024 72.834 937.141 73.9199 940.49 75.1416C950.851 78.9424 956.032 85.5259 956.032 94.8921C956.032 101.589 953.159 107.018 947.413 111.181C941.666 115.299 934.246 117.357 925.151 117.357C918.997 117.357 913.522 116.271 908.726 114.1C903.975 111.882 900.242 108.874 897.527 105.073C894.812 101.227 893.455 97.0866 893.455 92.6523H912.052C912.233 96.1364 913.522 98.806 915.92 100.661C918.319 102.516 921.531 103.444 925.558 103.444C929.314 103.444 932.142 102.743 934.042 101.34C935.988 99.8919 936.96 98.0142 936.96 95.7065Z" fill="#EAEAEA"/>
</g>
<defs>
<clipPath id="clip0">
<rect width="1022" height="156" fill="white"/>
</clipPath>
</defs>
</svg>
