<svg xmlns="http://www.w3.org/2000/svg" width="35.673" height="34.647" viewBox="0 0 35.673 34.647">
  <g id="Group_23" data-name="Group 23" transform="translate(-1008.569 -973.49)" opacity="0.5">
    <g id="download_6_" data-name="download (6)" transform="translate(1008.569 919.399)">
      <path id="Expand_More" d="M32.6,54.621,17.838,69.389,3.073,54.619A1.8,1.8,0,0,0,.527,57.167L16.564,73.21h0a1.8,1.8,0,0,0,2.545,0L35.147,57.168A1.8,1.8,0,1,0,32.6,54.621Z" transform="translate(0 0)" fill="#fff"/>
    </g>
    <g id="download_6_2" data-name="download (6)" transform="translate(1008.569 934.399)">
      <path id="Expand_More-2" data-name="Expand_More" d="M32.6,54.621,17.838,69.389,3.073,54.619A1.8,1.8,0,0,0,.527,57.167L16.564,73.21h0a1.8,1.8,0,0,0,2.545,0L35.147,57.168A1.8,1.8,0,1,0,32.6,54.621Z" transform="translate(0 0)" fill="#fff"/>
    </g>
  </g>
</svg>
